Discon recency analysis
…
data <- bind_rows(data_recency_another, data_recency_last, data_recency_look)

#check if workerIp is repeating
data_ip <- data %>%
  filter(phase == 'training') %>%
  group_by(workerIp) %>%
  summarise(correct = mean(correct_item))

data %>%
  filter(phase == 'training') %>%
  group_by(workerid) %>%
  summarise(correct = mean(correct_item))

## # A tibble: 89 x 2
##    workerid                         correct
##    <chr>                              <dbl>
##  1 01224864f01b61437e11427cf522ab51   1    
##  2 01f353e91addd6437d53de68c07b91ee   0.972
##  3 0479f82cdcc1768b468b133db0fb82e1   0.972
##  4 04d87f25d266173c64ea746ffa083c0b   1    
##  5 05408005e090881896b8ae582b03d451   1    
##  6 06652f470eff32592947be6a06c3ff5c   1    
##  7 08b410ae3bfed2571eb70022829de4db   1    
##  8 0b0facee86ce1a00568eed5e0b92e14d   1    
##  9 103dea4c3e1b7086f18f0db28c45e44f   1    
## 10 11c3e8dd7377e802da92d42bd6c48717   1    
## # ... with 79 more rows
…
